^C:\USERS\ANDRADA\DOCUMENTS\VISUAL STUDIO 2013\PROJECTS\CONVOLUTIEMATRICE\CONVOLUTIEMATRICE\DEBUG\CONVOLUTIE.CU.OBJ
C:\USERS\ANDRADA\DOCUMENTS\VISUAL STUDIO 2013\PROJECTS\CONVOLUTIEMATRICE\DEBUG\CONVOLUTIEMATRICE.ILK
C:\USERS\ANDRADA\DOCUMENTS\VISUAL STUDIO 2013\PROJECTS\CONVOLUTIEMATRICE\DEBUG\CONVOLUTIEMATRICE.EXE
C:\USERS\ANDRADA\DOCUMENTS\VISUAL STUDIO 2013\PROJECTS\CONVOLUTIEMATRICE\DEBUG\CONVOLUTIEMATRICE.PDB
