\relax 
\providecommand\hyper@newdestlabel[2]{}
\providecommand\HyperFirstAtBeginDocument{\AtBeginDocument}
\HyperFirstAtBeginDocument{\ifx\hyper@anchor\@undefined
\global\let\oldcontentsline\contentsline
\gdef\contentsline#1#2#3#4{\oldcontentsline{#1}{#2}{#3}}
\global\let\oldnewlabel\newlabel
\gdef\newlabel#1#2{\newlabelxx{#1}#2}
\gdef\newlabelxx#1#2#3#4#5#6{\oldnewlabel{#1}{{#2}{#3}}}
\AtEndDocument{\ifx\hyper@anchor\@undefined
\let\contentsline\oldcontentsline
\let\newlabel\oldnewlabel
\fi}
\fi}
\global\let\hyper@last\relax 
\gdef\HyperFirstAtBeginDocument#1{#1}
\providecommand\HyField@AuxAddToFields[1]{}
\providecommand\HyField@AuxAddToCoFields[2]{}
\newlabel{eq:fde}{{1}{1}{}{equation.0.1}{}}
\newlabel{eq:abm}{{2}{1}{}{equation.0.2}{}}
\citation{D2011}
\citation{XHC2014}
\citation{LMT2001}
\citation{LMT2001}
\citation{MT2005}
\@writefile{toc}{\contentsline {section}{\numberline {1}Dynamic Scheme}{2}{section.1}}
\@writefile{lof}{\contentsline {figure}{\numberline {1}{\ignorespaces Partition of time steps between processes.}}{2}{figure.1}}
\newlabel{fig:partition}{{1}{2}{Partition of time steps between processes}{figure.1}{}}
\@writefile{loa}{\contentsline {algocf}{\numberline {1}{\ignorespaces Parallel Algorithm for the Adams-Bashforth-Moulton scheme.}}{3}{algocf.1}}
\newlabel{alg:parallelabm}{{1}{3}{Dynamic Scheme}{algocf.1}{}}
\@writefile{toc}{\contentsline {section}{\numberline {2}Parareal}{3}{section.2}}
\newlabel{eq:pararealpde}{{3}{3}{Parareal}{equation.2.3}{}}
\@writefile{toc}{\contentsline {subsection}{\numberline {2.1}The Parareal Method for Classical ODEs}{4}{subsection.2.1}}
\newlabel{eq:pararealode}{{4}{4}{The Parareal Method for Classical ODEs}{equation.2.4}{}}
\@writefile{lof}{\contentsline {figure}{\numberline {2}{\ignorespaces Example discretization of the $[0, T]$ time interval: first we divide it into $P$ intervals corresponding to each process $p$, then each process divides it's subinterval into a coarse grid of $N$ points and a fine grid of $n$ points.}}{4}{figure.2}}
\newlabel{fig:parareal}{{2}{4}{Example discretization of the $[0, T]$ time interval: first we divide it into $P$ intervals corresponding to each process $p$, then each process divides it's subinterval into a coarse grid of $N$ points and a fine grid of $n$ points}{figure.2}{}}
\newlabel{eq:parareal}{{5}{5}{The Parareal Method for Classical ODEs}{equation.2.5}{}}
\@writefile{loa}{\contentsline {algocf}{\numberline {2}{\ignorespaces Parareal Method for solving non-linear ODEs.}}{5}{algocf.2}}
\newlabel{alg:parareal}{{2}{5}{The Parareal Method for Classical ODEs}{algocf.2}{}}
\citation{LMT2001}
\citation{XHC2014}
\citation{XHC2014}
\@writefile{toc}{\contentsline {subsection}{\numberline {2.2}The Parareal Method for Fractional ODEs}{6}{subsection.2.2}}
\newlabel{eq:pararealfde}{{6}{6}{The Parareal Method for Fractional ODEs}{equation.2.6}{}}
\bibcite{LMT2001}{1}
\bibcite{MT2005}{2}
\@writefile{loa}{\contentsline {algocf}{\numberline {3}{\ignorespaces Parareal Method for solving fractional ODEs.}}{7}{algocf.3}}
\newlabel{alg:pararealfde}{{3}{7}{The Parareal Method for Fractional ODEs}{algocf.3}{}}
\@writefile{toc}{\contentsline {section}{\numberline {3}Conclusions}{7}{section.3}}
\bibcite{D2011}{3}
\bibcite{XHC2014}{4}
